{
  "changelogDate": "20220610224148",
  "dto": "no",
  "fields": [
    {
      "fieldName": "libelle",
      "fieldType": "String",
      "fieldValidateRules": ["required", "unique"]
    }
  ],
  "jpaMetamodelFiltering": false,
  "name": "Categorie",
  "pagination": "pagination",
  "readOnly": false,
  "relationships": [],
  "service": "serviceClass"
}
