{
  "changelogDate": "20220610223423",
  "dto": "no",
  "fields": [
    {
      "fieldName": "libelle",
      "fieldType": "String",
      "fieldValidateRules": ["required", "unique"]
    }
  ],
  "jpaMetamodelFiltering": false,
  "name": "XamXam",
  "pagination": "pagination",
  "readOnly": false,
  "relationships": [
    {
      "otherEntityField": "libelle",
      "otherEntityName": "niveauXamXam",
      "relationshipName": "niveauXamXam",
      "relationshipType": "many-to-one",
      "relationshipValidateRules": ["required"]
    }
  ],
  "service": "serviceClass"
}
